{
    "name": "MaterialParameters",
    "version": "0.1",
    "namespace": "http://www.sintef.no/calm",
    "description": "General material parameters.",
    "dimensions": [
        {
            "name": "nelements",
            "description": "Number of elements."
        }
    ],
    "properties": [
        {
            "name": "b",
            "type": "double",
            "unit": "m",
            "description": "Burgers vector."
        },
        {
            "name": "MTaylor",
            "type": "double",
            "description": "Taylor factor."
        },
        {
            "name": "v_D",
            "type": "double",
            "unit": "1/s",
            "description": "Debye frequency."
        },
        {
            "name": "nu",
            "type": "double",
            "description": "Poisson's number."
        },
        {
            "name": "atomic_masses",
            "type": "double",
            "unit": "kg/kmol",
            "dims": ["nelements"],
            "description": "Molar masses for each element."
        },
        {
            "name": "D0",
            "type": "double",
            "unit": "m^2/s",
            "dims": ["nelements"],
            "description": "Diffusivity pre-factors for each element."
        },
        {
            "name": "Q",
            "type": "double",
            "unit": "J/kmol",
            "dims": ["nelements"],
            "description": "Activation energy diffusion for each element.  The diffusivity is given by D_i = exp(Q/(Rgas*T))"
        }
    ]
}
